{
  "template": "letter",
  "letter": {
    "from_name": "Heini Hunter",
    "from_street": "Hacker Weg",
    "from_street_number": "282",
    "from_postal_code": "34534",
    "from_city": "Musterstadt",
    "to_name": "Berta Böse",
    "to_street": "Toller Straße",
    "to_street_number": "12",
    "to_postal_code": "34234",
    "to_city": "Hinterwald",
    "sent_from": "Hamburg",
    "sent_date": "10.10.2010"
  }
}